<?xml version="1.0" encoding="utf-8"?>
<!-- Generator: Adobe Illustrator 24.0.0, SVG Export Plug-In . SVG Version: 6.00 Build 0)  -->
<svg version="1.0" id="Layer_1" xmlns="http://www.w3.org/2000/svg" xmlns:xlink="http://www.w3.org/1999/xlink" x="0px" y="0px"
	 viewBox="0 0 16 16" enable-background="new 0 0 16 16" xml:space="preserve">
<g id="hex_x5F_plus">
	<g>
		<polygon fill="#95D1B0" points="8,1 2,5 2,7 2,11 8,15 14,11 14,7 14,5 		"/>
	</g>
	<g id="plus_1_">
		
			<line fill="none" stroke="#FFFFFF" stroke-width="1.5" stroke-linecap="round" stroke-miterlimit="10" x1="8" y1="5" x2="8" y2="11"/>
		
			<line fill="none" stroke="#FFFFFF" stroke-width="1.5" stroke-linecap="round" stroke-miterlimit="10" x1="11" y1="8" x2="5" y2="8"/>
	</g>
</g>
</svg>
