<?xml version="1.0" encoding="utf-8"?>
<!-- Generator: Adobe Illustrator 23.0.2, SVG Export Plug-In . SVG Version: 6.00 Build 0)  -->
<svg version="1.0" id="Layer_1" xmlns="http://www.w3.org/2000/svg" xmlns:xlink="http://www.w3.org/1999/xlink" x="0px" y="0px"
	 viewBox="0 0 128 128" enable-background="new 0 0 128 128" xml:space="preserve">
<g id="editor">
	<g>
		<path fill="none" stroke="#95D1B0" stroke-width="3" stroke-linecap="round" stroke-linejoin="round" stroke-miterlimit="10" d="
			M118.68,8.83L92.1,37.03c-0.75,0.8-2.27,1.46-3.37,1.46H9.44"/>
	</g>
	<g>
		
			<line fill="none" stroke="#95D1B0" stroke-width="3" stroke-linecap="round" stroke-linejoin="round" stroke-miterlimit="10" x1="90.72" y1="118.69" x2="90.72" y2="38.81"/>
	</g>
	<g>
		<path fill="none" stroke="#95D1B0" stroke-width="3" stroke-linecap="round" stroke-linejoin="round" stroke-miterlimit="10" d="
			M119.88,91.51v-81.4c0-1.1-0.9-2-2-2H42.92c-1.1,0-2.66,0.61-3.47,1.36L9.59,37.13c-0.81,0.75-1.47,2.26-1.47,3.36v77.39
			c0,1.1,0.9,2,2,2h78.61c1.1,0,2.65-0.63,3.44-1.39l27.67-26.82"/>
	</g>
</g>
</svg>
