<?xml version="1.0" encoding="utf-8"?>
<!-- Generator: Adobe Illustrator 25.4.1, SVG Export Plug-In . SVG Version: 6.00 Build 0)  -->
<svg version="1.0" id="Layer_1" xmlns="http://www.w3.org/2000/svg" xmlns:xlink="http://www.w3.org/1999/xlink" x="0px" y="0px"
	 width="16px" height="16px" viewBox="0 0 16 16" enable-background="new 0 0 16 16" xml:space="preserve">
<path fill="#808080" d="M14,14.5c-0.28,0-0.5-0.22-0.5-0.5v-3c0-0.38-0.29-0.93-0.61-1.14L8.55,6.97c-0.29-0.19-0.82-0.19-1.11,0
	L3.11,9.86C2.79,10.07,2.5,10.62,2.5,11v3c0,0.28-0.22,0.5-0.5,0.5S1.5,14.28,1.5,14v-3c0-0.72,0.45-1.57,1.05-1.97l4.34-2.89
	c0.62-0.42,1.6-0.42,2.22,0l4.34,2.89c0.6,0.4,1.05,1.25,1.05,1.97v3C14.5,14.28,14.28,14.5,14,14.5z"/>
<path fill="#95D1B0" d="M14.11,8c-0.54,0-0.98-0.43-1-0.97C11.8,6.98,11.11,5.96,11.11,5l-1-0.01c-1.26,0-1.95-0.97-2-1.91
	c-0.01,0-0.01,0-0.02,0H8c0,0-0.01,0-0.02,0c-0.05,0.96-0.75,1.91-2,1.91h-1c0.03,0-0.02,0.02-0.04,0.03C4.99,5.97,4.3,7,3,7.03
	C2.95,7.54,2.52,7.97,2,7.97C1.45,7.97,1,7.55,1,7c0-0.74,0.31-1.19,0.57-1.44C2.14,5.02,2.86,5.02,3,5.03c0-1.44,1.17-2,1.95-2.04
	l1.04,0c0-0.69,0.3-1.12,0.55-1.36c0.58-0.56,1.35-0.56,1.5-0.55l0.07,0c0.11,0,0.88-0.01,1.46,0.55c0.25,0.24,0.55,0.68,0.55,1.37
	l1,0c0.83,0.03,2,0.6,2,2.01c0.13,0.02,0.86,0.02,1.42,0.56c0.26,0.25,0.57,0.7,0.57,1.44C15.11,7.55,14.66,8,14.11,8z"/>
</svg>
