<?xml version="1.0" encoding="utf-8"?>
<!-- Generator: Adobe Illustrator 24.0.0, SVG Export Plug-In . SVG Version: 6.00 Build 0)  -->
<svg version="1.0" id="Layer_1" xmlns="http://www.w3.org/2000/svg" xmlns:xlink="http://www.w3.org/1999/xlink" x="0px" y="0px"
	 viewBox="0 0 16 16" enable-background="new 0 0 16 16" xml:space="preserve">
<g id="hex_x5F_plus">
	<g>
		<polygon fill="#95D1B0" points="8,0 1,5 1,7 1,8 15,8 15,7 15,5" style="stroke:white;stroke-width:1"/>
	</g>
</g>
</svg>
