<?xml version="1.0" encoding="utf-8"?>
<!-- Generator: Adobe Illustrator 23.0.3, SVG Export Plug-In . SVG Version: 6.00 Build 0)  -->
<svg version="1.0" id="Layer_1" xmlns="http://www.w3.org/2000/svg" xmlns:xlink="http://www.w3.org/1999/xlink" x="0px" y="0px"
	 viewBox="0 0 16 16" enable-background="new 0 0 16 16" xml:space="preserve">
<g id="time">
	<g>
		<path fill="#808080" d="M8,2c3.31,0,6,2.69,6,6s-2.69,6-6,6s-6-2.69-6-6S4.69,2,8,2 M8,1C4.13,1,1,4.13,1,8s3.13,7,7,7s7-3.13,7-7
			S11.87,1,8,1L8,1z"/>
	</g>
	<g>
		<line fill="none" stroke="#95D1B0" stroke-linecap="round" stroke-miterlimit="10" x1="5" y1="4" x2="8" y2="8"/>
	</g>
	
		<line fill="none" stroke="#95D1B0" stroke-width="1.5" stroke-linecap="round" stroke-miterlimit="10" x1="11.5" y1="8" x2="8" y2="8"/>
</g>
</svg>
